    16
 Wannier centres, written by Wannier90 on12Oct2023 at 10:29:10 
X          1.41300000      -1.41300000      -1.41300000
X          1.41300000      -1.41300000      -1.41300000
X          1.41300000      -1.41300000      -1.41300000
X          1.41300000      -1.41300000      -1.41300000
X          1.41300000      -1.41300000      -1.41300000
X         -0.00000000      -0.00000000       0.00000000
X          0.00000000      -0.00000000       0.00000000
X         -0.00000000      -0.00000000       0.00000000
X          0.00000000      -0.00000000       0.00000000
X         -0.00000000       0.00000000       0.00000000
X          1.66977620      -1.15622381      -1.15622380
X          1.66977621      -1.66977621      -1.66977620
X          1.15622381      -1.15622382      -1.66977619
X          1.15622381      -1.66977619      -1.15622381
As         1.41300000       4.23900000       4.23900000
Ga         0.00000000       0.00000000       0.00000000
